Fit a random forest for composite endpoints using CPIU-wide data — Rforce • Rforce
…
#> 989  0.486117229 0.2905290732         0         1         1         0         3
#> 990  0.872769284 0.6911367823         0         1         0         0         0
#> 991  0.132775944 0.9533134028         1         1         0         0         0
#> 992  0.538757506 0.1551497311         1         1         1         1         0
#> 993  0.700820850 0.6608257715         1         0         1         0         3
#> 994  0.315988317 0.5113392656         0         1         0         0         0
#> 995  0.140269956 0.5417766776         0         0         0         0         0
#> 996  0.450369348 0.5197288208         2         0         1         1         0
#> 997  0.140324061 0.5914809525         0         0         0         0         0
#> 998  0.667310180 0.2725823489         1         0         0         0         0
#> 999  0.861129019 0.0921642703         1         0         0         0         3
#> 1000 0.538632737 0.7446324748         0         1         1         1         3
#> 
#> $auxiliaryFeatures
#> # A tibble: 1,000 × 8
#>       Id pseudo_risk_time_1 pseudo_risk_time_2 pseudo_risk_time_3
#>    <int>              <dbl>              <dbl>              <dbl>
#>  1     1            0.173                0.232              0.268
#>  2     2            0.178                0.253              0.318
#>  3     3            0.178                0.253              0.323
#>  4     4            0.178                0.253              0.323
#>  5     5            0.102                0                  0    
#>  6     6            0.178                0.252              0.298
#>  7     7            0.178                0.253              0.323
#>  8     8            0.00357              0                  0    
#>  9     9            0.178                0.253              0.292
#> 10    10            0.178                0.253              0.323
#> # ℹ 990 more rows
#> # ℹ 4 more variables: pseudo_risk_time_4 <dbl>, pseudo_risk_time_5 <dbl>,
#> #   X <dbl>, Status <dbl>
…
